Analytical Paleobiology
…
```r
url <- 'https://paleobiodb.org/data1.2/occs/list.txt?base_name=Carnivora&show=full'
dfr <- read_csv(file = url)
```

---
# readr

```r
carnivores <- read_csv(file = here("2021_06_18/carnivores.csv"))
carnivores
```

```
## # A tibble: 12,168 x 118
##    occurrence_no record_type reid_no flags collection_no
##            <dbl> <chr>         <dbl> <lgl>         <dbl>
##  1        117266 occ              NA NA             9070
##  2        137493 occ              NA NA            11601
##  3        137495 occ              NA NA            11601
##  4        138737 occ              NA NA            11798
##  5        138738 occ              NA NA            11798
##  6        138739 occ              NA NA            11798
##  7        138740 occ              NA NA            11798
##  8        138741 occ              NA NA            11798
##  9        138742 occ              NA NA            11798
## 10        138743 occ              NA NA            11798
## # … with 12,158 more rows, and 113 more variables:
## #   identified_name <chr>, identified_rank <chr>,
## #   identified_no <dbl>, difference <chr>,
## #   accepted_name <chr>, accepted_attr <lgl>, …
```
…
---
# dplyr

## `select()`

```r
select(<DATA>, <VARIABLES>)
```

```r
carnivores
```

```
## # A tibble: 12,168 x 118
##    occurrence_no record_type reid_no flags collection_no
##            <dbl> <chr>         <dbl> <lgl>         <dbl>
##  1        117266 occ              NA NA             9070
##  2        137493 occ              NA NA            11601
##  3        137495 occ              NA NA            11601
##  4        138737 occ              NA NA            11798
##  5        138738 occ              NA NA            11798
##  6        138739 occ              NA NA            11798
##  7        138740 occ              NA NA            11798
##  8        138741 occ              NA NA            11798
##  9        138742 occ              NA NA            11798
## 10        138743 occ              NA NA            11798
## # … with 12,158 more rows, and 113 more variables:
## #   identified_name <chr>, identified_rank <chr>,
## #   identified_no <dbl>, difference <chr>,
## #   accepted_name <chr>, accepted_attr <lgl>, …
```

---
# dplyr

## `select()`

```r
select(carnivores, identified_rank, accepted_name, min_ma, max_ma)
```

```
## # A tibble: 12,168 x 4
##    identified_rank accepted_name         min_ma max_ma
##    <chr>           <chr>                  <dbl>  <dbl>
##  1 species         Cynodictis lacustris   33.9    37.2
##  2 species         Enaliarctos mealsi     23.0    28.1
##  3 species         Pinnarctidion bishopi  23.0    28.1
##  4 species         Indarctos atticus       7.25   11.6
##  5 genus           Protursus               7.25   11.6
##  6 subfamily       Ursinae                 7.25   11.6
##  7 species         Proputorius             7.25   11.6
##  8 species         Sivaonyx bathygnathus   7.25   11.6
##  9 genus           Lutra                   7.25   11.6
## 10 species         Ictitherium             7.25   11.6
## # … with 12,158 more rows
```
…
--

### `%in%`

---
# dplyr

## `filter()`

```r
filter(carnivores, accepted_rank == "species", max_ma > 7)
```

```
## # A tibble: 3,235 x 118
##    occurrence_no record_type reid_no flags collection_no
##            <dbl> <chr>         <dbl> <lgl>         <dbl>
##  1        117266 occ              NA NA             9070
##  2        137493 occ              NA NA            11601
##  3        137495 occ              NA NA            11601
##  4        138737 occ              NA NA            11798
##  5        138741 occ              NA NA            11798
##  6        147936 occ              NA NA            13061
##  7        149438 occ              NA NA            13192
##  8        164284 occ              NA NA            14768
##  9        165362 occ              NA NA            14906
## 10        165688 occ              NA NA            14939
## # … with 3,225 more rows, and 113 more variables:
## #   identified_name <chr>, identified_rank <chr>,
## #   identified_no <dbl>, difference <chr>,
## #   accepted_name <chr>, accepted_attr <lgl>, …
```
…
```r
mutate(<DATA>, <NAME> = <FUNCTION>)
```

---
# dplyr

## `mutate()`

```r
mutate(carnivores, age_range = abs(max_ma - min_ma))
```

```
## # A tibble: 12,168 x 119
##    occurrence_no record_type reid_no flags collection_no
##            <dbl> <chr>         <dbl> <lgl>         <dbl>
##  1        117266 occ              NA NA             9070
##  2        137493 occ              NA NA            11601
##  3        137495 occ              NA NA            11601
##  4        138737 occ              NA NA            11798
##  5        138738 occ              NA NA            11798
##  6        138739 occ              NA NA            11798
##  7        138740 occ              NA NA            11798
##  8        138741 occ              NA NA            11798
##  9        138742 occ              NA NA            11798
## 10        138743 occ              NA NA            11798
## # … with 12,158 more rows, and 114 more variables:
## #   identified_name <chr>, identified_rank <chr>,
## #   identified_no <dbl>, difference <chr>,
## #   accepted_name <chr>, accepted_attr <lgl>, …
```

---
# dplyr

## `transmute()`

```r
transmute(carnivores, 
          age_range = abs(max_ma - min_ma), 
          age_range_sq = age_range^2)
```

```
## # A tibble: 12,168 x 2
##    age_range age_range_sq
##        <dbl>        <dbl>
##  1      3.3          10.9
##  2      5.07         25.7
##  3      5.07         25.7
##  4      4.37         19.1
##  5      4.37         19.1
##  6      4.37         19.1
##  7      4.37         19.1
##  8      4.37         19.1
##  9      4.37         19.1
## 10      4.37         19.1
## # … with 12,158 more rows
```
…
---
# dplyr

## `arrange()`

```r
arrange(carnivores, max_ma) %>% 
  select(max_ma, everything())
```

```
## # A tibble: 12,168 x 118
##    max_ma occurrence_no record_type reid_no flags
##     <dbl>         <dbl> <chr>         <dbl> <lgl>
##  1 0.0117        154618 occ              NA NA   
##  2 0.0117        212868 occ              NA NA   
##  3 0.0117        212869 occ              NA NA   
##  4 0.0117        212870 occ              NA NA   
##  5 0.0117        212871 occ              NA NA   
##  6 0.0117        212872 occ              NA NA   
##  7 0.0117        212873 occ              NA NA   
##  8 0.0117        212918 occ              NA NA   
##  9 0.0117        212932 occ              NA NA   
## 10 0.0117        212933 occ              NA NA   
## # … with 12,158 more rows, and 113 more variables:
## #   collection_no <dbl>, identified_name <chr>,
## #   identified_rank <chr>, identified_no <dbl>,
## #   difference <chr>, accepted_name <chr>, …
```

---
# dplyr

## `arrange()`

```r
arrange(carnivores, max_ma, lng) %>% 
  select(max_ma, lng, everything())
```

```
## # A tibble: 12,168 x 118
##    max_ma   lng occurrence_no record_type reid_no flags
##     <dbl> <dbl>         <dbl> <chr>         <dbl> <lgl>
##  1 0.0117 -177.        653974 occ              NA NA   
##  2 0.0117 -177.        653975 occ              NA NA   
##  3 0.0117 -177.        653976 occ              NA NA   
##  4 0.0117 -176.       1447238 occ              NA NA   
##  5 0.0117 -173.        819689 occ              NA NA   
##  6 0.0117 -173.        819690 occ              NA NA   
##  7 0.0117 -170.       1310863 occ              NA NA   
##  8 0.0117 -170.       1310864 occ              NA NA   
##  9 0.0117 -170.       1310865 occ              NA NA   
## 10 0.0117 -170.       1310851 occ              NA NA   
## # … with 12,158 more rows, and 112 more variables:
## #   collection_no <dbl>, identified_name <chr>,
## #   identified_rank <chr>, identified_no <dbl>,
## #   difference <chr>, accepted_name <chr>, …
```

---
# dplyr

## `desc()`

```r
arrange(carnivores, max_ma, desc(lng)) %>% 
  select(max_ma, lng, everything())
```

```
## # A tibble: 12,168 x 118
##    max_ma   lng occurrence_no record_type reid_no flags
##     <dbl> <dbl>         <dbl> <chr>         <dbl> <lgl>
##  1 0.0117  180.       1429298 occ              NA NA   
##  2 0.0117  180.       1268080 occ              NA NA   
##  3 0.0117  178.       1447237 occ              NA NA   
##  4 0.0117  177.        653978 occ              NA NA   
##  5 0.0117  177.        805370 occ              NA NA   
##  6 0.0117  176.       1318554 occ              NA NA   
##  7 0.0117  176.       1429299 occ              NA NA   
##  8 0.0117  176.       1447239 occ              NA NA   
##  9 0.0117  175.       1268186 occ              NA NA   
## 10 0.0117  175.       1447240 occ              NA NA   
## # … with 12,158 more rows, and 112 more variables:
## #   collection_no <dbl>, identified_name <chr>,
## #   identified_rank <chr>, identified_no <dbl>,
## #   difference <chr>, accepted_name <chr>, …
```
…
---
# dplyr

## `group_by()`

```r
carnivores %>% 
  group_by(accepted_rank)
```

```
## # A tibble: 12,168 x 118
## # Groups:   accepted_rank [12]
##    occurrence_no record_type reid_no flags collection_no
##            <dbl> <chr>         <dbl> <lgl>         <dbl>
##  1        117266 occ              NA NA             9070
##  2        137493 occ              NA NA            11601
##  3        137495 occ              NA NA            11601
##  4        138737 occ              NA NA            11798
##  5        138738 occ              NA NA            11798
##  6        138739 occ              NA NA            11798
##  7        138740 occ              NA NA            11798
##  8        138741 occ              NA NA            11798
##  9        138742 occ              NA NA            11798
## 10        138743 occ              NA NA            11798
## # … with 12,158 more rows, and 113 more variables:
## #   identified_name <chr>, identified_rank <chr>,
## #   identified_no <dbl>, difference <chr>,
## #   accepted_name <chr>, accepted_attr <lgl>, …
```
…
---
# dplyr 

## `group_by()`

```r
carnivores %>% 
  group_by(accepted_rank) %>% 
  mutate(n = n(),
         mean_fad = mean(max_ma)) %>% 
  select(n, mean_fad)
```

```
## # A tibble: 12,168 x 3
## # Groups:   accepted_rank [12]
##    accepted_rank     n mean_fad
##    <chr>         <int>    <dbl>
##  1 species        7637     10.4
##  2 species        7637     10.4
##  3 species        7637     10.4
##  4 species        7637     10.4
##  5 genus          3060     10.4
##  6 subfamily       277     13.1
##  7 genus          3060     10.4
##  8 species        7637     10.4
##  9 genus          3060     10.4
## 10 genus          3060     10.4
## # … with 12,158 more rows
```
…
